Basic Usage
…
LNToutput <- LNToutput[!sapply(LNToutput@meta$stats, is.null), ]
LNToutput
#> Object of class 'LNToutput':
#> 1 articles
#> 7 paragraphs
#> # A tibble: 1 x 11
#>      ID Source_File  Newspaper Date       Length Section Author Edition Headline
#>   <int> <chr>        <chr>     <date>     <chr>  <chr>   <chr>  <chr>   <chr>   
#> 1     9 SampleFile_… Sunday M… 2010-01-10 446 w… NEWS; … Ross … 3 Star… R (prog…
#> # … with 2 more variables: Graphic <lgl>, stats <named list>
#> # A tibble: 1 x 2
#>      ID Article                                                                 
#>   <int> <chr>                                                                   
#> 1     9 R is a programming language and free software environment for statistic…
#> # A tibble: 7 x 3
#>   Art_ID Par_ID Paragraph                                                       
#>    <int>  <int> <chr>                                                           
#> 1      9     67 R is a programming language and free software environment for s…
#> 2      9     68 R is a GNU package. The source code for the R software environm…
#> 3      9     69 R is an implementation of the S programming language combined w…
#> 4      9     70 R was created by Ross Ihaka and Robert Gentleman at the Univers…
#> 5      9     71 R and its libraries implement a wide variety of statistical and…
#> 6      9     72 Another strength of R is static graphics, which can produce pub…
#> # … with 1 more row
…
